<svg xmlns="http://www.w3.org/2000/svg" viewBox="0 0 600 600"><defs><style>.jacket{fill:black;}.inverted .jacket{fill:white;}.jacket-sleeve{fill:#1c1715;}.inverted .jacket-sleeve{fill:#b6b7b6;}.shirt-button{fill:#000;}.inverted .shirt-button{fill:#fff;}.bow-tie{fill:#000;}.inverted .bow-tie{fill:#fff;}.mustache{fill:#000;}.inverted .mustache{fill:#fff;}.glasses{fill:#000;}.inverted .glasses{fill:#fff;}.lapel{fill:#fff;}.inverted .lapel{fill:#000;}.cls-2{fill-rule:evenodd;}</style></defs><title>Logo</title>
  <g id="Capa_1" data-name="Capa 1">
    <polygon class="jacket" points="475.58 224.28 349.82 186.25 300 457.43 250.19 186.25 124.42 224.28 203.89 563.22 396.11 563.22 475.58 224.28"/>
    <polygon class="jacket-sleeve" points="250.19 186.25 194.14 203.07 232.15 256.67 208.9 271.5 290.27 408.85 250.19 186.25"/>
    <polygon class="jacket-sleeve" points="349.82 186.25 405.86 203.07 367.85 256.67 391.1 271.5 309.74 408.85 349.82 186.25"/>
    <ellipse class="shirt-button" cx="300.6" cy="231.52" rx="5.16" ry="5.16"/>
    <ellipse class="shirt-button" cx="300.6" cy="291.69" rx="5.16" ry="5.16"/>
    <ellipse class="shirt-button" cx="300.6" cy="351.85" rx="5.16" ry="5.16"/>
    <path class="cls-2 bow-tie" d="M266.38,188.51a1.36,1.36,0,0,1-.64-1.47,1.67,1.67,0,0,1,1.82-1.24,1.69,1.69,0,0,1,.94.31,1.57,1.57,0,0,1,.31.44,1.65,1.65,0,0,1,.3.84,1.09,1.09,0,0,1-.21.6l1.28-.31c7.09-1.73,14.12-3.41,19.83-7.62,1.78-1.31,3.51-2.67,5.33-3.94l.06,0a4.4,4.4,0,0,0,3,1.62c1,.1,2,.15,3,.23a1.9,1.9,0,0,0,1.77-.69c1.43,1,2.76,1.94,4.15,2.82,2.19,1.4,4.35,2.86,6.67,4.09a44.37,44.37,0,0,0,6.73,2.84.83.83,0,0,1-.24-.66c.07-.49.56-.73,1.09-.73a.88.88,0,0,1,.85.94.91.91,0,0,1-.88.72c2.86.92,5.82,1.66,8.76,2.38,1.61.4,3.27.68,4.92.93,2.87.43,2.75-3.7,2.89-5.19.38-4,1.23-8,1.32-12.1a87.93,87.93,0,0,0,.08-10c-.05-.56-.56-3.79-1.21-6.68l-.08.11-.07.07,0,0a.83.83,0,0,1-.2.13l-.71.34a1.14,1.14,0,0,1-1.19-.13l-.79-.53a1,1,0,0,1-.36-1,1.47,1.47,0,0,1,1.28-1.29,2,2,0,0,1,1.67.39c-.47-1.71-1-3-1.43-2.92a13.32,13.32,0,0,0-2,.23c-2.39.63-4.77,1.28-7.12,2a77.37,77.37,0,0,0-17.4,7.35l-2.51,1.5c-.33.2-1.91,1.43-2.27,1.36l-1-.2a3.68,3.68,0,0,1,.89.82c.39.46,0,1.08-.59,1.24a2.56,2.56,0,0,1-.89.2,3.09,3.09,0,0,1-.92-.22,2.19,2.19,0,0,1-1.16-1,.87.87,0,0,1,0-.81l0-.07,0-.05a.9.9,0,0,1,.43-.27l0,0,.06,0,.36-.06a22.8,22.8,0,0,0-4.66-.79,8.28,8.28,0,0,0-2.35.28c-.17.05-1.95,1-1.56,1.26-.71-.52-1.41-1-2.09-1.52a55.47,55.47,0,0,0-8.86-5.54h0l0,0a.7.7,0,0,1-.23.84h0l-.13.09a2.3,2.3,0,0,1-1.41.56,2.05,2.05,0,0,1-1.42-.85.76.76,0,0,1-.15-1,2.94,2.94,0,0,1,.93-.76c-1-.4-1.94-.77-3-1.1a66.68,66.68,0,0,0-9.7-2.73,7.18,7.18,0,0,0-4,0l-1.41,5.76a46.78,46.78,0,0,0-1.45,11.06,69.24,69.24,0,0,0,.75,9.37,72.3,72.3,0,0,0,1.49,7.87,3.62,3.62,0,0,0,.92,2.28C264.86,188.76,265.62,188.65,266.38,188.51Zm71.69-19.21a1.61,1.61,0,0,1-1.77-.64,1,1,0,0,1,.25-1.21,1.79,1.79,0,0,1,1.33-.55,1.1,1.1,0,0,1,.9.54.82.82,0,0,1,.19.27C339.3,168.27,338.82,169.11,338.07,169.3Zm-1.84-8a1.33,1.33,0,0,1,1.31-.57,1.17,1.17,0,0,1,.54.26.85.85,0,0,1,.63.65.82.82,0,0,1-.45.83.92.92,0,0,1-.72.46,1.2,1.2,0,0,1-1.1-.65,1,1,0,0,1-.09-.32A.58.58,0,0,1,336.23,161.33ZM336,175.17a1.8,1.8,0,0,1,.52-.65,1.88,1.88,0,0,1,.91-.38,1,1,0,0,1,.32-.06,1.71,1.71,0,0,1,.39,0,.91.91,0,0,1,.87.8.69.69,0,0,1,0,.17,1.5,1.5,0,0,1-.89,1.27,1.19,1.19,0,0,1-1.48-.08.51.51,0,0,1-.3-.06A.81.81,0,0,1,336,175.17Zm-.14,6a1,1,0,0,1,.46-.69,1.48,1.48,0,0,1,.89-.21,1.09,1.09,0,0,1,1,1.16,1,1,0,0,1-.46.69,1.47,1.47,0,0,1-.89.21A1.08,1.08,0,0,1,335.87,181.2Zm-.66,6.44c.08-.53.59-.77,1.15-.77a.93.93,0,0,1,.9,1c-.08.53-.59.77-1.15.77A.93.93,0,0,1,335.21,187.65Zm-38-11.83a1.39,1.39,0,0,1-1.31.27,1,1,0,0,1-.58-1.32,1.47,1.47,0,0,1,1.13-.81,1.31,1.31,0,0,1,.69.07.71.71,0,0,1,.66.38A1.31,1.31,0,0,1,297.22,175.81ZM310,178a1,1,0,0,1-.94.62l-1,0h0a1.07,1.07,0,0,1-.63-.23l0,0-.06-.07-.06-.08,0,0,0-.1,0,0v-.07a1.63,1.63,0,0,1,.11-1.29,2.21,2.21,0,0,1,.81-.75,1.11,1.11,0,0,1,1,0,2,2,0,0,1,1.12.93A1.93,1.93,0,0,1,310,178Zm6.43,2.1a1.44,1.44,0,0,1-.36,1,1.83,1.83,0,0,1-1.53.34,2,2,0,0,1-1-.69,1.2,1.2,0,0,1-.24-1.15,1.74,1.74,0,0,1,.67-.77l.06,0,.09-.06a.83.83,0,0,1,.31-.11.88.88,0,0,1,.45,0c.5.16,1.18.32,1.43.78A1.13,1.13,0,0,1,316.46,180.08Zm.2-4.47a1,1,0,0,1-.61.25.86.86,0,0,1-.58-.12l-1-.68a.81.81,0,0,1-.35-1.15l.46-.86a1,1,0,0,1,.85-.42,2.94,2.94,0,0,1,1.39.15,1.62,1.62,0,0,1,.79.82C317.85,174.37,317.25,175.08,316.66,175.6Zm7.49,5.41a1.44,1.44,0,0,1-.61.86,2.09,2.09,0,0,1-1.28.45,2.15,2.15,0,0,1-1.19-.45l0,0-.07-.05,0,0h0a.77.77,0,0,1-.18-.28v0a.54.54,0,0,1,0-.1.69.69,0,0,1,0-.14h0a.77.77,0,0,1,0-.16h0a.41.41,0,0,1,0-.06c.16-.48.37-1.15.95-1.39a2.25,2.25,0,0,1,1.7.06c.39.14.68.31.78.69A1.44,1.44,0,0,1,324.16,181Zm7.29.9,0,0a1,1,0,0,1-.73.38h-1.05c-.39,0-.88-.25-.94-.62a2.65,2.65,0,0,1,0-1.29,1.29,1.29,0,0,1,1-.83,3.73,3.73,0,0,1,.72,0l.32,0a1.18,1.18,0,0,1,.91.48A1.44,1.44,0,0,1,331.45,181.91Zm1.33-6.67a1.88,1.88,0,0,1-1.12.72,2,2,0,0,1-1.55-.41,1.4,1.4,0,0,1-.43-1.12,1.3,1.3,0,0,1,.17-.77,2.25,2.25,0,0,1,1.48-.76h.33l.17,0h0l.16.05h0l.13.07,0,0,.1.08,0,0,.06.07,0,0C332.85,173.84,333.27,174.61,332.77,175.24Zm.06-8.09a2.34,2.34,0,0,1,.13.75c0,.68-.63,1-1.26,1.32a1.12,1.12,0,0,1-1.19-.13l-.79-.67a.77.77,0,0,1-.29-.47.57.57,0,0,1,0-.35,4.72,4.72,0,0,1,.38-.79,2.59,2.59,0,0,1,.8-.61,1.12,1.12,0,0,1,1,0l.69.28A.92.92,0,0,1,332.83,167.15Zm-.67-5.15c-.07.75-.77,1.15-1.57,1.28h0a1.14,1.14,0,0,1-.5,0l-.06,0-.06,0-.14-.06h0l-.12-.08,0,0-.8-.61c-.45-.34-.29-1,0-1.4a1.79,1.79,0,0,1,1.92-.65A1.7,1.7,0,0,1,332.16,162Zm-4.86-5.57a1.81,1.81,0,0,1,.6-.8,2.24,2.24,0,0,1,1.22-.4,1.42,1.42,0,0,1,1.15.52,1.49,1.49,0,0,1,.45.88,2.08,2.08,0,0,1-.05.64.77.77,0,0,1,0,.11v.05a.77.77,0,0,1-.58.55l-.1,0a2.38,2.38,0,0,1-2.27-.34A1,1,0,0,1,327.3,156.42Zm-.12,31.35a.5.5,0,0,1,0-.07l.07-.8a.9.9,0,0,1,.72-.81,2.66,2.66,0,0,1,1.71-.07,1.64,1.64,0,0,1,.84,1.06.84.84,0,0,1,0,.84,3.1,3.1,0,0,1-.35.38,1.74,1.74,0,0,1-.54.39,2.3,2.3,0,0,1-1.71-.09l-.05,0a.84.84,0,0,1-.67-.79Zm-2-12.55A1.87,1.87,0,0,1,324,176a2,2,0,0,1-1.54-.31,1.73,1.73,0,0,1-.44-1,1.34,1.34,0,0,1,.13-1c.28-.52,1-.7,1.59-.84h0a1,1,0,0,1,.74.09l.06,0,.13.09a1.64,1.64,0,0,1,.73.92A1.44,1.44,0,0,1,325.16,175.22Zm0-6.74a2.06,2.06,0,0,1-1.68,1.11l-.12,0-.13,0a.87.87,0,0,1-.58-.16,1.43,1.43,0,0,1-.85-1.87,1.89,1.89,0,0,1,2.24-1C324.92,166.86,325.57,167.68,325.18,168.48Zm-.81-6.88c.5.74-.35,1.51-1.11,1.74a1.52,1.52,0,0,1-1.29,0l-.79-.47,0,0a.89.89,0,0,1-.17-.11.75.75,0,0,1-.27-.49.7.7,0,0,1,.12-.54.83.83,0,0,1,.13-.15l0,0a2,2,0,0,1,3.38.07Zm-4.82-3.65s0,0,0,0a.66.66,0,0,1,.28-.48,3.29,3.29,0,0,1,1.81-.83,2,2,0,0,1,1.5.88c.55.68-.25,1.71-1.12,1.82a2.53,2.53,0,0,1-1.27-.11,4.1,4.1,0,0,1-.71-.43h0a1,1,0,0,1-.19-.13.82.82,0,0,1-.24-.37v0l0-.07a.59.59,0,0,1,0-.1A.67.67,0,0,1,319.56,157.95Zm-2,11.69c-.25.5-1,.74-1.53.91H316a1,1,0,0,1-.66,0l-.06,0,0,0a.84.84,0,0,1-.35-.3,2.27,2.27,0,0,1-.48-1,1.35,1.35,0,0,1,.3-.94,1.94,1.94,0,0,1,1-.64,1.34,1.34,0,0,1,1.39.34C317.59,168.45,317.88,169,317.56,169.63ZM313,162.69a2,2,0,0,1,2-1.37,1.89,1.89,0,0,1,1.81,1.39.64.64,0,0,1,0,.34.74.74,0,0,1-.23.43h0l0,0-.71.62a1.1,1.1,0,0,1-1.19.13l-1.16-.64A.8.8,0,0,1,313,162.69Zm-2.72,10-.51,1.07a1.06,1.06,0,0,1-1.44.5,3.13,3.13,0,0,1-1-.49,1.89,1.89,0,0,1-.52-.79c-.2-.79.27-1.38,1-1.81h0a1,1,0,0,1,1,0l1,.57A.79.79,0,0,1,310.32,172.67Zm-3.61-8.12a3.51,3.51,0,0,1,1.15-.81l.1,0h0l.12,0,.09,0h.23a1.11,1.11,0,0,1,.34.08l0,0,.11.06a.85.85,0,0,1,.28.26.71.71,0,0,1,.11.26h0a.63.63,0,0,1,0,.11.39.39,0,0,1,0,.06,1.8,1.8,0,0,1-.24,1.3,2.7,2.7,0,0,1-1.44.73,1,1,0,0,1-1.2-.59A1.53,1.53,0,0,1,306.71,164.56ZM302.64,169l.06,0h0a1,1,0,0,1,.86-.18h0a2.41,2.41,0,0,1,1.67,1,1.43,1.43,0,0,1,.21,1.06,2.71,2.71,0,0,1-1.18,1.05,2.17,2.17,0,0,1-2.09-.78,1.91,1.91,0,0,1-.4-1C301.8,169.66,302.3,169.33,302.64,169Zm-2.39,7,0,0h0l.91-.74a1.1,1.1,0,0,1,1.19-.13l.86.55a.79.79,0,0,1,.2,1.32,2.17,2.17,0,0,1-1.37.74,3.65,3.65,0,0,1-1.59-.42.74.74,0,0,1-.45-.54A.66.66,0,0,1,300.25,176Zm-4.48-10.15a1.74,1.74,0,0,1,.62-1,1.8,1.8,0,0,1,1.73-.16,1.08,1.08,0,0,1,.69,1.46,1.87,1.87,0,0,1-1,.87,1.78,1.78,0,0,1-1.33.06A1.08,1.08,0,0,1,295.76,165.86Zm-.27,3.86,0,0,.6-.59a1.1,1.1,0,0,1,1.19-.13,2.81,2.81,0,0,1,1.21.84,1.68,1.68,0,0,1,.14,1.21.9.9,0,0,1-.72.81,2.37,2.37,0,0,1-1.53,0,2.92,2.92,0,0,1-1-1h0l0,0,0-.07,0,0A.76.76,0,0,1,295.49,169.72Zm-23.72,5.87h0a1.9,1.9,0,0,1-1.19-1.49,1.32,1.32,0,0,1,.62-1.2,2.19,2.19,0,0,1,1.11-.26,1.75,1.75,0,0,1,1.6,1.31,1.49,1.49,0,0,1-1.07,1.69h0a1.11,1.11,0,0,1-.86,0h0l-.05,0Zm.23,4.9,0,0,0-.08a.57.57,0,0,1,0-.39v0l0-.08a.68.68,0,0,1,.24-.33l.73-.53a1.12,1.12,0,0,1,1.38,0l1,.86a.77.77,0,0,1,0,1.19,4,4,0,0,1-.79.67,1.69,1.69,0,0,1-1.24,0A2.21,2.21,0,0,1,272,180.5Zm17.92-2.62a2,2,0,0,1-.42,1.49.88.88,0,0,1-.6.39,1,1,0,0,1-.74-.09c-.45-.25-1.06-.56-1.16-1.06a2,2,0,0,1,.42-1.47,1.07,1.07,0,0,1,1.34-.3C289.23,177.07,289.82,177.38,289.93,177.87Zm-.72-4.38a.77.77,0,0,1-.19.71l0,0,0,0a2,2,0,0,1-1.85.7,3.78,3.78,0,0,1-.89-.4,1,1,0,0,1-.43-1.29,1.79,1.79,0,0,1,1.86-1.13,1.63,1.63,0,0,1,1.55,1.28A.24.24,0,0,1,289.21,173.49ZM285.15,163l.31-.83a1,1,0,0,1,.94-.62l1.55.15h0a1.2,1.2,0,0,1,.25,0,1,1,0,0,1,.41.21l0,0,.06.06.07.08,0,.07,0,0a.59.59,0,0,1,0,.55l0,.09h0l-.54,1.16a1.05,1.05,0,0,1-1.44.5l-1.28-.57A.8.8,0,0,1,285.15,163Zm.7,4.86a2.91,2.91,0,0,1,1.07.06,1.61,1.61,0,0,1,.71.33,2.09,2.09,0,0,1,.57,1.28s0,0,0,0a.74.74,0,0,1-.2.73l0,0,0,0-.06,0,0,0a1.9,1.9,0,0,1-1.26.43,1.8,1.8,0,0,1-1.2-.54,1.61,1.61,0,0,1-.55-1.2A1.43,1.43,0,0,1,285.84,167.83ZM283,179.65a.77.77,0,0,1,0,1.19,2.22,2.22,0,0,1-1.53.78,2.37,2.37,0,0,1-1.58-.94.78.78,0,0,1,0-1.19l.68-.7a1.1,1.1,0,0,1,1.38,0Zm-1.78-4.39-.8.55a1.1,1.1,0,0,1-1.38,0c-.37-.37-1.08-.89-1.08-1.4a1.64,1.64,0,0,1,.83-1.34,2.06,2.06,0,0,1,1.54-.11,1.17,1.17,0,0,1,.9.81l.25.68A.74.74,0,0,1,281.2,175.26Zm-2.64-14.34a2.33,2.33,0,0,1,1.29-.24,3.25,3.25,0,0,1,.9.5.81.81,0,0,1,.35,1.15,2.43,2.43,0,0,1-.48.73,2.08,2.08,0,0,1-.87.46,2.12,2.12,0,0,1-1.86-.48.77.77,0,0,1-.28-.56v0A1.48,1.48,0,0,1,278.56,160.92Zm-1.45,6.73,0-.08,0,0,.1-.12h0l0,0,.48-.41a1.07,1.07,0,0,1,1-.22,3.5,3.5,0,0,1,1.74.93,1.26,1.26,0,0,1-.08,1.46,1.3,1.3,0,0,1-1.18.71,2.26,2.26,0,0,1-1-.2,2.42,2.42,0,0,1-1.17-1.46A.67.67,0,0,1,277.11,167.65Zm-.88,15.94a1.27,1.27,0,0,1,.23,1.39,1.64,1.64,0,0,1-1.8.61l-.08,0h-.21a.91.91,0,0,1-.86-1,1.6,1.6,0,0,1,1.26-1.6A1.58,1.58,0,0,1,276.23,183.59Zm-2.71-29h.26a1,1,0,0,1,.36.06,1.11,1.11,0,0,1,.33.18l1,.83a.77.77,0,0,1,0,1.19l-1,.76a1.1,1.1,0,0,1-1.19.13,7.83,7.83,0,0,1-1-.65,1.36,1.36,0,0,1-.44-1.06C271.94,155.2,272.71,154.73,273.52,154.55Zm-3.09,6.15a1.7,1.7,0,0,1,1.32-.55,2.82,2.82,0,0,1,1.49.65l.07,0h0a.74.74,0,0,1,.17,1l0,0-.37.73a1,1,0,0,1-.85.42h-.85a1.3,1.3,0,0,1-1.16-.59A1.37,1.37,0,0,1,270.44,160.7Zm-.8,6.35a2.07,2.07,0,0,1,2-1c.72.13,1.11.79,1.4,1.31a.78.78,0,0,1-.15,1,4.06,4.06,0,0,1-.8.68,1.76,1.76,0,0,1-1.41-.1,2.09,2.09,0,0,1-1.08-1.26h0v0a.69.69,0,0,1,0-.13A.61.61,0,0,1,269.64,167.06Zm-1.89,14.42a.49.49,0,0,1,0,.12v0a.81.81,0,0,1-.64.57l0,0a1.94,1.94,0,0,1-2.28-.66,1.41,1.41,0,0,1-.21-1.21,1.69,1.69,0,0,1,.87-.92,1.33,1.33,0,0,1,1.14,0l.37.14a1.66,1.66,0,0,1,.69.52A1.69,1.69,0,0,1,267.75,181.47Zm-3.27-25.91a.86.86,0,0,1,0-.13.29.29,0,0,1,0,0,2,2,0,0,1,.6-1.23,2.2,2.2,0,0,1,1.75-.24,1.27,1.27,0,0,1,.6,2.25,2.12,2.12,0,0,1-1.35.56,2,2,0,0,1-1.25-.44l0,0-.06,0,0,0,0,0-.08-.1h0a.76.76,0,0,1-.12-.47Zm-1.64,5a1.82,1.82,0,0,1,2.18-.79,1.06,1.06,0,0,1,.78.69c0,.11.06.23.09.34a1.39,1.39,0,0,1,0,.78,2.07,2.07,0,0,1-1.3,1h0a1,1,0,0,1-.33.08h-.12a1.11,1.11,0,0,1-.48-.09h0A1.38,1.38,0,0,1,262.84,160.55Zm.87,5.66a.91.91,0,0,1,.56-.15,1.66,1.66,0,0,1,1.74,1.4,1.43,1.43,0,0,1-1.1,1.61A1.56,1.56,0,0,1,263.71,166.21Zm.49,6.75a1.1,1.1,0,0,1,1.54-.17c.56.4,1.17.82,1.07,1.53a1.37,1.37,0,0,1-.47,1c-.25.18-.52.32-.79.48a1.08,1.08,0,0,1-1.34-.3,3.41,3.41,0,0,1-.69-1.07C263.36,173.9,263.9,173.37,264.2,173Z"/>
    <path class="mustache" d="M301.28,117.46s7.69-6.33,20.68,3.3c0,0,11.42,10.53,23.33,8.92,0,0,.49,2.23-25.22,2.05,0,0-17.17.89-18.79-14.27"/>
    <path class="mustache" d="M299.91,117.46s-7.69-6.33-20.68,3.3c0,0-11.42,10.53-23.33,8.92,0,0-.49,2.23,25.22,2.05,0,0,17.17.89,18.79-14.27"/>
    <path class="cls-2 glasses" d="M228.84,39.28a5.46,5.46,0,0,1-.11-3.62c.23-.62,1.57-.68,2.54-1v1.93l-2.26.76c.9,1,2.76-.07,2.37,2.71C230.47,39.79,229.11,39.88,228.84,39.28Zm142.88,0a5.48,5.48,0,0,0,.11-3.62c-.23-.62-1.57-.68-2.54-1v1.93l2.26.76c-.9,1-2.76-.07-2.37,2.71C370.09,39.79,371.45,39.88,371.72,39.28Zm-5.76.82h-.15c-3.89.38-3.89.38-4.46,4.92-2,15.77-12.1,26.1-25.52,26.07-12.61,0-22.16-9.21-25.25-24.54a77.64,77.64,0,0,1-1-10c-.17-2.48-.44-3.18-2.43-3.8a23.48,23.48,0,0,0-13.69,0c-2,.62-2.25,1.32-2.42,3.8a77.57,77.57,0,0,1-1,10c-3.09,15.32-12.63,24.51-25.25,24.54-13.41,0-23.53-10.3-25.51-26.07-.57-4.54-.57-4.54-4.46-4.92h-.15c-1.84-.2-2.42-1.11-2.32-3.59.08-2,1.32-1.86,2.47-1.86.25,0,.5,0,.75,0a3.46,3.46,0,0,0,3.62-2.23q.62-1.22,1.22-2.45c6-12.2,15.93-16.28,26.26-15,7.77.93,14.38,5,19.83,11.62,1.44,1.75,3,2.22,4.87,1.46a24.53,24.53,0,0,1,18,0c1.88.76,3.44.29,4.87-1.46C319.59,20,326.2,15.89,334,15c10.32-1.24,20.26,2.84,26.26,15,.4.82.81,1.63,1.22,2.45a3.46,3.46,0,0,0,3.62,2.23c.25,0,.5,0,.75,0,1.15,0,2.39-.16,2.47,1.86C368.39,39,367.8,39.89,366,40.09Zm-80.07-6.78a21.37,21.37,0,0,0-9.57-12c-7-4-14.29-5-21.75-1.86-10.07,4.28-15,14.94-12.77,27.39,1.86,10.35,7,17.33,15.47,20.46s16.46,1.35,23.28-5.79a25.4,25.4,0,0,0,6.28-14l-.94.72c-.15.6-.32,1.19-.5,1.79-.08.28-.16.57-.26.85a.34.34,0,0,1-.65-.21,80,80,0,0,0,1.49-8.1.28.28,0,1,1,.56,0,16.63,16.63,0,0,1-.14,3.06c.21,0,.48,0,.75-.07A23.59,23.59,0,0,0,285.89,33.31ZM346,19.47c-7.46-3.17-14.72-2.14-21.74,1.86a21.37,21.37,0,0,0-9.57,12,23.61,23.61,0,0,0-1.27,12.29c.27,0,.54,0,.75.07a16.72,16.72,0,0,1-.14-3.06.28.28,0,1,1,.56,0,80.19,80.19,0,0,0,1.49,8.1.34.34,0,0,1-.65.21c-.1-.29-.18-.57-.26-.85-.18-.6-.35-1.2-.5-1.79l-.94-.72a25.41,25.41,0,0,0,6.28,14c6.83,7.14,14.69,9,23.28,5.79s13.61-10.1,15.47-20.46C361,34.42,356.06,23.76,346,19.47Z"/>
    <path class="lapel" d="M347.56,237.07c.41,0,.82,0,1.23,0a7,7,0,0,1,3,.83l.07,0c0-.15.06-.3.08-.45a5.82,5.82,0,0,0,.1-1,4.36,4.36,0,0,0-.14-.8c0-.09,0-.17-.06-.26h0a11.28,11.28,0,0,1,1.71.56,7.22,7.22,0,0,1,1.89,1.24.43.43,0,0,0,.29.1,2.88,2.88,0,0,0,1.1-.18,8,8,0,0,0,1.7-.85,12.69,12.69,0,0,0,1.53-1.17l0,0,0,.08a12.68,12.68,0,0,0,.64,1.67,8,8,0,0,0,1.09,1.74,2.86,2.86,0,0,0,.81.69.48.48,0,0,0,.34.05,7.26,7.26,0,0,1,2.42,0,12.74,12.74,0,0,1,1.56.38h0l-.28.28a3.17,3.17,0,0,0-.49.58,6.83,6.83,0,0,0-.43.92l-.15.38a7.5,7.5,0,0,1,4.1,1.48l-.24.14-.29.16a2.6,2.6,0,0,0-.82.72,17.23,17.23,0,0,0-1,1.43c-.57.86-1.14,1.71-1.78,2.51a12.24,12.24,0,0,1-2.1,2.09,8.1,8.1,0,0,1-5.35,1.7,11,11,0,0,1-2.16-.3l-.1,0c-.45,1.59-4.06,13.92-4.51,15.51l-.9-.25c.45-1.59,4.06-13.91,4.51-15.51l-.57-.2a9,9,0,0,1-3.8-2.55,8.46,8.46,0,0,1-1.57-2.82,13.59,13.59,0,0,1-.61-3c-.1-1-.12-1.91-.16-2.86a13.38,13.38,0,0,0-.13-1.58,2.54,2.54,0,0,0-.33-1c-.1-.16-.19-.33-.28-.49Zm8.59,13.79.14,0c.24,0,.48.08.73.11a4.93,4.93,0,0,0,2-.2,5,5,0,0,0,2.16-1.43,9.68,9.68,0,0,0,1.48-2.23,20.79,20.79,0,0,0,1-2.51c.33-.93.63-1.87,1-2.81.15-.42.32-.83.49-1.24,0-.12.11-.23.17-.35h-.06c-.24,0-.49-.06-.73-.06a6,6,0,0,0-3.94,1.23,7.56,7.56,0,0,0-1.77,1.92,12.67,12.67,0,0,0-1.54,3.46c-.39,1.34-.76,2.68-1.13,4ZM353,236.74c0,.32-.07.64-.13.95q-.19,1-.41,1.92c-.21.91-.42,1.81-.58,2.73a17.61,17.61,0,0,0-.25,2.15,8.9,8.9,0,0,0,.16,2.33,5.07,5.07,0,0,0,.87,2,5.19,5.19,0,0,0,2.39,1.73l.24.09,0-.1,1.05-3.74a15,15,0,0,0,.51-2.65,9.34,9.34,0,0,0-.12-2.78,6.39,6.39,0,0,0-1.06-2.48,6.22,6.22,0,0,0-2.27-1.92Zm4.87,6.44a8.07,8.07,0,0,1,3.84-3.46,8.47,8.47,0,0,1-2-3.07,11.73,11.73,0,0,1-1.57,1,6,6,0,0,1-1.74.6A8.08,8.08,0,0,1,357.83,243.18ZM351,247.74h0l0-.06a7.38,7.38,0,0,1-.31-1.49,12.66,12.66,0,0,1,.06-2.93,30,30,0,0,1,.54-3q.15-.66.3-1.31a.1.1,0,0,0-.05-.13,6.2,6.2,0,0,0-2.19-.79l-.35,0,.05.26a12.52,12.52,0,0,1,.15,1.61c0,.87.08,1.74.13,2.61a12.92,12.92,0,0,0,.45,2.67,8,8,0,0,0,1.18,2.51Zm17-4.37a6.15,6.15,0,0,0-2.67-.6l-.36,1.09c-.32.95-.65,1.89-1.05,2.81a15.25,15.25,0,0,1-1,1.88,8.39,8.39,0,0,1-1.71,2.06v0l.07,0a7.42,7.42,0,0,0,1.32-.73,10.22,10.22,0,0,0,1.93-1.78,25,25,0,0,0,1.76-2.39c.37-.55.74-1.1,1.13-1.64C367.63,243.83,367.83,243.61,368,243.38Z"/>
  </g>
</svg>
